{
    "version": "0.2.0",
    "configurations": [
        {
            "type": "al",
            "request": "launch",
            "name": "Your own server",
            "server": "http://localhost",
            "serverInstance": "BC130",
            "authentication": "Windows",
            "startupObjectId": 22,
            "port": 7049,
            "startupObjectType": "Page",
            "breakOnError": true
        }
    ]
}